FinalProject
…
games <- raw_data #%>% select(rated, turns, winner, increment_code, white_rating, black_rating)
games

## # A tibble: 20,058 x 16
##    id    rated created_at last_move_at turns victory_status winner
##    <chr> <lgl>      <dbl>        <dbl> <dbl> <chr>          <chr> 
##  1 TZJH FALSE    1.50e12      1.50e12    13 outoftime      white 
##  2 l1NX TRUE     1.50e12      1.50e12    16 resign         black 
##  3 mIIC TRUE     1.50e12      1.50e12    61 mate           white 
##  4 kWKv TRUE     1.50e12      1.50e12    61 mate           white 
##  5 9tXo TRUE     1.50e12      1.50e12    95 mate           white 
##  6 MsoD FALSE    1.50e12      1.50e12     5 draw           draw  
##  7 qwU9 TRUE     1.50e12      1.50e12    33 resign         white 
##  8 RVN0 FALSE    1.50e12      1.50e12     9 resign         black 
##  9 dwF3 TRUE     1.50e12      1.50e12    66 resign         black 
## 10 afoM TRUE     1.50e12      1.50e12   119 mate           white 
## #  with 20,048 more rows, and 9 more variables: increment_code <chr>,
## #   white_id <chr>, white_rating <dbl>, black_id <chr>, black_rating <dbl>,
## #   moves <chr>, opening_eco <chr>, opening_name <chr>, opening_ply <dbl>

Then, we can clean the data, adding new columns based on information that we think will be useful later. We can add the rating_diff and higher_rating_result columns here. They can tell us the different between the two players ELO ratings, and whether or not the player with the higher rating won.

games <- games %>% mutate(rating_diff = white_rating - black_rating) %>% mutate(higher_rating_result = ifelse((rating_diff > 0 & winner=="white"), "Won", ifelse((rating_diff < 0 & winner=="black"), "Won", "Didn't Win")))
games

## # A tibble: 20,058 x 18
##    id    rated created_at last_move_at turns victory_status winner
##    <chr> <lgl>      <dbl>        <dbl> <dbl> <chr>          <chr> 
##  1 TZJH FALSE    1.50e12      1.50e12    13 outoftime      white 
##  2 l1NX TRUE     1.50e12      1.50e12    16 resign         black 
##  3 mIIC TRUE     1.50e12      1.50e12    61 mate           white 
##  4 kWKv TRUE     1.50e12      1.50e12    61 mate           white 
##  5 9tXo TRUE     1.50e12      1.50e12    95 mate           white 
##  6 MsoD FALSE    1.50e12      1.50e12     5 draw           draw  
##  7 qwU9 TRUE     1.50e12      1.50e12    33 resign         white 
##  8 RVN0 FALSE    1.50e12      1.50e12     9 resign         black 
##  9 dwF3 TRUE     1.50e12      1.50e12    66 resign         black 
## 10 afoM TRUE     1.50e12      1.50e12   119 mate           white 
## #  with 20,048 more rows, and 11 more variables: increment_code <chr>,
## #   white_id <chr>, white_rating <dbl>, black_id <chr>, black_rating <dbl>,
## #   moves <chr>, opening_eco <chr>, opening_name <chr>, opening_ply <dbl>,
## #   rating_diff <dbl>, higher_rating_result <chr>
…
opening_df <- avg_ratings %>%
  filter(rated=="TRUE" & winner=="white") %>%
  select(avg_rating, opening_name, winner)
opening_df <- opening_df[order(opening_df$avg_rating),]

This data frame will be sorted by average rating, contain the rated games that were won by the white player, and will contain information about the average rating, the opening the player used, and the winner. Now we can look at the most common overall openings used in the dataset.

openings <- opening_df %>%
  count(opening_name)
colnames(openings) <- c("opening_name", "freq")
openings %>%
  arrange(desc(freq))

## # A tibble: 1,086 x 2
##    opening_name                                   freq
##    <chr>                                         <int>
##  1 Scandinavian Defense: Mieses-Kotroc Variation   129
##  2 Sicilian Defense                                125
##  3 French Defense: Knight Variation                116
##  4 Scotch Game                                     112
##  5 Philidor Defense #3                              98
##  6 Sicilian Defense: Bowdler Attack                 97
##  7 Van't Kruijs Opening                             97
##  8 Horwitz Defense                                  96
##  9 Caro-Kann Defense                                95
## 10 Queen's Pawn Game: Mason Attack                  92
## #  with 1,076 more rows
…
Now to look at the different percentiles of players, we need to calculate the location of the bottom and middle percentiles of our data before we look at the frequency of the openings.

totalG <- 8052
bottom <- ceiling(0.25 * totalG)
middle <- ceiling(0.5 * totalG)
top <- ceiling(0.75 * totalG)

openings25th <- opening_df[1:bottom,] %>%
  count(opening_name)
colnames(openings25th) <- c("opening_name", "freq")
openings25th %>%
  arrange(desc(freq))

## # A tibble: 440 x 2
##    opening_name                                   freq
##    <chr>                                         <int>
##  1 Van't Kruijs Opening                             67
##  2 Scandinavian Defense                             53
##  3 Scandinavian Defense: Mieses-Kotroc Variation    45
##  4 King's Pawn Game: Wayward Queen Attack           43
##  5 Four Knights Game: Italian Variation             41
##  6 Philidor Defense #2                              36
##  7 Scotch Game                                      36
##  8 French Defense: Knight Variation                 30
##  9 King's Pawn Game: Leonardis Variation            30
## 10 Caro-Kann Defense                                29
## #  with 430 more rows

From the table above, the most frequent opening for ranked games in the first quartile of players in the dataset is Vant Kruijs Opening followed by the Scandinavian Defense and the Scandinavian Defense: Mieses-Kotroc Variation. This can now be done for the rest of the quartiles to see if there is a trend for common openings.

openings50th <- opening_df[(bottom+1):middle,] %>%
  count(opening_name)
colnames(openings50th) <- c("opening_name", "freq")
openings50th %>%
  arrange(desc(freq))

## # A tibble: 504 x 2
##    opening_name                                   freq
##    <chr>                                         <int>
##  1 Sicilian Defense: Bowdler Attack                 43
##  2 Sicilian Defense                                 37
##  3 Scandinavian Defense: Mieses-Kotroc Variation    36
##  4 Scotch Game                                      33
##  5 Philidor Defense #3                              30
##  6 Horwitz Defense                                  28
##  7 Italian Game: Anti-Fried Liver Defense           28
##  8 French Defense: Knight Variation                 26
##  9 Philidor Defense #2                              26
## 10 Queen's Pawn Game: Mason Attack                  26
## #  with 494 more rows

For ranked games in the second quartile, the top three most used openings that have won are the Sicilian Defense: Bowdler Attack, Sicilian Defense and the Scandinavian Defense: Mieses-Kotroc Variation.

openings75th <- opening_df[(middle+1):top,] %>%
  count(opening_name)
colnames(openings75th) <- c("opening_name", "freq")
openings75th %>%
  arrange(desc(freq))

## # A tibble: 578 x 2
##    opening_name                                   freq
##    <chr>                                         <int>
##  1 French Defense: Knight Variation                 39
##  2 Queen's Gambit Refused: Marshall Defense         35
##  3 Scotch Game                                      34
##  4 Sicilian Defense                                 33
##  5 Italian Game: Anti-Fried Liver Defense           32
##  6 Philidor Defense #3                              29
##  7 Sicilian Defense: Bowdler Attack                 29
##  8 Caro-Kann Defense                                28
##  9 Scandinavian Defense: Mieses-Kotroc Variation    28
## 10 Queen's Pawn Game: Mason Attack                  27
## #  with 568 more rows

For ranked games in the third quartile, the top three most used openings that have won are the French Defense: Knight Variation, Queens Gambit Refused: Marshall Defense and Scotch Game.

openingstop <- opening_df[(top+1):totalG,] %>%
  count(opening_name)
colnames(openingstop) <- c("opening_name", "freq")
openingstop %>%
  arrange(desc(freq))

## # A tibble: 732 x 2
##    opening_name                                   freq
##    <chr>                                         <int>
##  1 Sicilian Defense                                 28
##  2 Horwitz Defense                                  23
##  3 Queen's Pawn Game: Mason Attack                  22
##  4 French Defense: Knight Variation                 21
##  5 French Defense: Exchange Variation               20
##  6 Scandinavian Defense: Mieses-Kotroc Variation    20
##  7 Indian Game                                      19
##  8 Caro-Kann Defense                                18
##  9 Queen's Pawn Game: Zukertort Variation           18
## 10 Sicilian Defense: McDonnell Attack               18
## #  with 722 more rows
…
upsets <- avg_ratings %>% 
  filter(higher_rating_result=="Didn't Win")
upsets_count <- upsets %>% 
  count(opening_name)
colnames(upsets_count) <- c("opening_name", "freq")
t <- upsets %>% 
  group_by(opening_name) %>%
  summarise(average_rating_diff = mean(abs(rating_diff)))

upset_stat <- inner_join(upsets_count, t, by="opening_name")
upset_stat <- upset_stat %>% arrange(desc(freq)) 
upset_stat <- upset_stat[!(upset_stat$freq < 25),]
upset_stat

## # A tibble: 45 x 3
##    opening_name                                   freq average_rating_diff
##    <chr>                                         <int>               <dbl>
##  1 Sicilian Defense                                103               108. 
##  2 French Defense: Knight Variation                 96               108. 
##  3 Sicilian Defense: Bowdler Attack                 94                89.2
##  4 Van't Kruijs Opening                             88                92.0
##  5 Scotch Game                                      86                84.7
##  6 Philidor Defense #2                              77                98.2
##  7 Scandinavian Defense: Mieses-Kotroc Variation    74               112. 
##  8 Queen's Pawn Game: Mason Attack                  73                96.1
##  9 Scandinavian Defense                             69               109. 
## 10 Horwitz Defense                                  67               113. 
## #  with 35 more rows
…
From the graph we gather average rating difference in upsets do not vary dramatically with opening strategy in upset games.

Finally one of the most interesting questions we could ask about this dataset was, can we effectively predict the outcome of a game base on given data. And that is what we set out to do.

avg_ratings <- avg_ratings %>% mutate(w = ifelse(winner=="white", 1, 0))
avg_ratings <- avg_ratings %>% mutate(diff_more_than_50 = ifelse((rating_diff) > 50, 1, 0))
top_openings <- openings %>% arrange(desc(freq)) 
top_openings <- top_openings[1:100,]

avg_ratings$myvar = avg_ratings$opening_name %in% top_openings$opening_name
avg_ratings <- avg_ratings %>% mutate(is_top_opener = ifelse(myvar=="TRUE", 1, 0))
avg_ratings

## # A tibble: 16,155 x 23
##    id    rated created_at last_move_at turns victory_status winner
##    <chr> <lgl>      <dbl>        <dbl> <dbl> <chr>          <chr> 
##  1 l1NX TRUE     1.50e12      1.50e12    16 resign         black 
##  2 mIIC TRUE     1.50e12      1.50e12    61 mate           white 
##  3 kWKv TRUE     1.50e12      1.50e12    61 mate           white 
##  4 9tXo TRUE     1.50e12      1.50e12    95 mate           white 
##  5 qwU9 TRUE     1.50e12      1.50e12    33 resign         white 
##  6 dwF3 TRUE     1.50e12      1.50e12    66 resign         black 
##  7 afoM TRUE     1.50e12      1.50e12   119 mate           white 
##  8 UhXX TRUE     1.50e12      1.50e12    36 resign         white 
##  9 mCij TRUE     1.50e12      1.50e12    13 resign         black 
## 10 ifUM TRUE     1.50e12      1.50e12    69 mate           white 
## #  with 16,145 more rows, and 16 more variables: increment_code <chr>,
## #   white_id <chr>, white_rating <dbl>, black_id <chr>, black_rating <dbl>,
## #   moves <chr>, opening_eco <chr>, opening_name <chr>, opening_ply <dbl>,
## #   rating_diff <dbl>, higher_rating_result <chr>, avg_rating <dbl>, w <dbl>,
## #   diff_more_than_50 <dbl>, myvar <lgl>, is_top_opener <dbl>
…
